{
  "version": 1,
  "author": "Anonymous maker",
  "editor": "wokwi",
  "parts": [
    { "type": "wokwi-pi-pico", "id": "pico", "top": 0, "left": 0, "attrs": {} },
    {
      "type": "wokwi-pushbutton",
      "id": "btn1",
      "top": 227,
      "left": 9.6,
      "attrs": { "color": "green" }
    },
    {
      "type": "wokwi-resistor",
      "id": "r1",
      "top": 81.6,
      "left": 76.25,
      "rotate": 90,
      "attrs": { "value": "1000" }
    }
  ],
  "connections": [
    [ "pico:GP0", "$serialMonitor:RX", "", [] ],
    [ "pico:GP1", "$serialMonitor:TX", "", [] ],
    [ "r1:1", "pico:3V3", "green", [ "h0", "v-9.6" ] ],
    [ "btn1:1.r", "pico:GP21", "green", [ "v0", "h29", "v-96" ] ],
    [ "r1:2", "pico:GP21", "green", [ "h0", "v8.4" ] ],
    [ "btn1:2.r", "pico:GND.6", "green", [ "h38.6", "v-134.2" ] ]
  ],
  "dependencies": {}
}